{
    "web": {
        "client_id": "interactive.confidential",
        "client_secret": "secret",
        "auth_uri": "https://demo.identityserver.io/connect/authorize",
        "token_introspection_uri": "https://demo.identityserver.io/connect/introspect",
        "token_uri": "https://demo.identityserver.io/connect/token",
        "userinfo_uri": "https://demo.identityserver.io/connect/userinfo",
        "issuer": "https://demo.identityserver.io",
        "redirect_uris": [
            "http://localhost:8000/oidc_callback"
        ]
    }
}

